<svg xmlns="http://www.w3.org/2000/svg" width="16.768" height="15.478" viewBox="0 0 16.768 15.478">
  <g id="Icon_ionic-ios-calendar" data-name="Icon ionic-ios-calendar" transform="translate(-3.375 -4.5)">
    <path id="Path_85" data-name="Path 85" d="M18.53,6.75H16.918v.967a.323.323,0,0,1-.322.322h-.645a.323.323,0,0,1-.322-.322V6.75H7.889v.967a.323.323,0,0,1-.322.322H6.922A.323.323,0,0,1,6.6,7.717V6.75H4.987A1.617,1.617,0,0,0,3.375,8.362V19.326a1.617,1.617,0,0,0,1.612,1.612H18.53a1.617,1.617,0,0,0,1.612-1.612V8.362A1.617,1.617,0,0,0,18.53,6.75Zm.322,12.092a.809.809,0,0,1-.806.806H5.471a.809.809,0,0,1-.806-.806V11.587a.323.323,0,0,1,.322-.322H18.53a.323.323,0,0,1,.322.322Z" transform="translate(0 -0.96)" fill="#393939"/>
    <path id="Path_86" data-name="Path 86" d="M10.29,4.822A.323.323,0,0,0,9.967,4.5H9.322A.323.323,0,0,0,9,4.822V5.79h1.29Z" transform="translate(-2.4)" fill="#393939"/>
    <path id="Path_87" data-name="Path 87" d="M26.04,4.822a.323.323,0,0,0-.322-.322h-.645a.323.323,0,0,0-.322.322V5.79h1.29Z" transform="translate(-9.122)" fill="#393939"/>
  </g>
</svg>
