<svg xmlns="http://www.w3.org/2000/svg" width="20.663" height="19.789" viewBox="0 0 20.663 19.789">
  <path id="Icon_ionic-ios-information-circle" data-name="Icon ionic-ios-information-circle" d="M13.707,3.375A10.118,10.118,0,0,0,3.375,13.269a10.118,10.118,0,0,0,10.332,9.894,10.118,10.118,0,0,0,10.332-9.894A10.118,10.118,0,0,0,13.707,3.375Zm.944,14.461h-1.9V10.981h1.9Zm-.949-7.6a.952.952,0,1,1,1.028-.951A.976.976,0,0,1,13.7,10.234Z" transform="translate(-3.375 -3.375)" fill="#393939"/>
</svg>
