<svg xmlns="http://www.w3.org/2000/svg" width="339.227" height="51.033" viewBox="0 0 339.227 51.033">
  <g id="Logo" transform="translate(0 0)">
    <g id="Group_98" data-name="Group 98" transform="translate(43.904 7.943)">
      <path id="Path_35" data-name="Path 35" d="M104.309,22.885c0-2.481-1.672-3.2-5.393-3.487v-.611H109V42.98h-4.692Z" transform="translate(-98.916 -18.392)" fill="#111"/>
      <path id="Path_36" data-name="Path 36" d="M130.168,23.029c0-2.876-.755-3.127-5.393-3.631v-.611h10.786l16.933,19.627h.108V18.787h2.8V42.98h-4.1l-18.228-21.1h-.107v21.1h-2.8Z" transform="translate(-113.298 -18.392)" fill="#111"/>
      <path id="Path_37" data-name="Path 37" d="M202.02,22.561c0-2.049-.755-2.732-5.447-3.163v-.611h25.454l.269,4.386h-1.672c-.539-1.869-.486-2.984-4.961-2.984H210c-3.074,0-3.29.431-3.29,2.372v7.082h6.849c4.476,0,4.853-1.294,5.285-2.984h1.241V34.1h-1.241c-.539-2.085-.7-3.055-5.285-3.055h-6.849V42.98H202.02Z" transform="translate(-153.228 -18.392)" fill="#111"/>
      <path id="Path_38" data-name="Path 38" d="M261.894,22.885c0-2.481-1.672-3.2-5.393-3.487v-.611h10.085V42.98h-4.692Z" transform="translate(-186.557 -18.392)" fill="#111"/>
      <path id="Path_39" data-name="Path 39" d="M309.322,41.873a41.485,41.485,0,0,1-10.138,1.006c-10.139,0-15.639-6-15.639-13.3,0-6.542,3.29-11.683,14.345-11.683,8.143,0,11.055,2.84,11.433,5.284h-5.285c-.269-1.115-1.186-3.667-6.471-3.667-5.716,0-8.736,3.63-8.736,9.13,0,5.1,1.51,12.618,13.32,12.618a35.586,35.586,0,0,0,7.173-.9Z" transform="translate(-201.597 -17.896)" fill="#111"/>
      <path id="Path_40" data-name="Path 40" d="M343.8,30.406c0-7.693,3.4-12.51,14.129-12.51,10.786,0,14.022,5.356,14.022,12.51,0,7.62-3.344,12.473-14.022,12.473C346.818,42.879,343.8,37.559,343.8,30.406Zm22.865,0c0-4.529-.377-11.108-8.736-11.108-8.251,0-8.845,6.147-8.845,11.108,0,4.494.378,11.071,8.845,11.071C366.07,41.477,366.663,35.33,366.663,30.406Z" transform="translate(-235.108 -17.896)" fill="#111"/>
      <path id="Path_41" data-name="Path 41" d="M406.4,23.029c0-2.876-.755-3.127-5.393-3.631v-.611H411.8L428.73,38.414h.108V18.787h2.8V42.98h-4.1l-18.227-21.1h-.108v21.1h-2.8Z" transform="translate(-266.927 -18.392)" fill="#111"/>
    </g>
    <g id="Group_99" data-name="Group 99" transform="translate(0 0)">
      <path id="Path_42" data-name="Path 42" d="M19.955,45.438v-14.2c-.182-7.147-.3-9.488-7.919-10.071A45.005,45.005,0,0,0,8.652,24.7c-9.219,10.76-11.2,23.336-5.316,27.531,3.632,2.588,9.877,1.719,16.293-1.85A35.723,35.723,0,0,0,19.955,45.438Z" transform="translate(0 -11.772)" fill="#1e4171"/>
      <path id="Path_43" data-name="Path 43" d="M48,28.611C56.926,17.943,59,5.637,53.184,1.495A9.357,9.357,0,0,0,47.363.008,6.749,6.749,0,0,1,40.844,5.1a6.78,6.78,0,0,1-4.388-1.6A40.9,40.9,0,0,0,29.6,8.391H48v20.22Z" transform="translate(-16.464 0)" fill="#1e4171"/>
    </g>
    <g id="Group_100" data-name="Group 100" transform="translate(49.295 40.633)">
      <path id="Path_44" data-name="Path 44" d="M111.064,91.547h2.122v8.08h-2.122Z" transform="translate(-111.064 -91.547)" fill="#111"/>
      <path id="Path_45" data-name="Path 45" d="M119.365,96.371H121.2v.86l.034.022a3.661,3.661,0,0,1,2.734-1.041c1.9,0,3.107.679,3.107,1.992v4.018h-1.936V98.545c-.034-.917-.577-1.313-1.715-1.313-1.29,0-2.122.679-2.122,1.539v3.452h-1.936Z" transform="translate(-115.681 -94.142)" fill="#111"/>
      <path id="Path_46" data-name="Path 46" d="M141.228,100.343c.1.747.951,1.019,1.986,1.019.73,0,2-.1,1.953-.77s-1.46-.758-2.869-.973c-1.426-.2-2.818-.543-2.818-1.731,0-1.279,2.071-1.675,3.668-1.675,1.8,0,3.43.5,3.667,1.8h-2.02c-.17-.611-.934-.781-1.783-.781-.56,0-1.6.091-1.6.6,0,.634,1.426.724,2.852.939,1.409.215,2.836.554,2.836,1.709,0,1.392-2.106,1.9-3.922,1.9-2.207,0-3.854-.656-3.888-2.037Z" transform="translate(-126.763 -94.142)" fill="#111"/>
      <path id="Path_47" data-name="Path 47" d="M159.373,96.371h1.834v.792h.034a3.5,3.5,0,0,1,2.717-.95c2.767,0,4.109,1.4,4.109,3.112,0,1.573-1.188,3.056-3.786,3.056a4.237,4.237,0,0,1-2.937-.917h-.034v2.92h-1.936Zm4.33.86c-1.63,0-2.462.826-2.462,2.071,0,1.177.9,2.059,2.462,2.059,1.766,0,2.428-1.041,2.428-2.059A2.167,2.167,0,0,0,163.7,97.232Z" transform="translate(-137.931 -94.142)" fill="#111"/>
      <path id="Path_48" data-name="Path 48" d="M181.788,91.547h1.935v1.222h-1.935Zm0,2.229h1.935v5.851h-1.935Z" transform="translate(-150.397 -91.547)" fill="#111"/>
      <path id="Path_49" data-name="Path 49" d="M189.551,96.371h1.817V97.5h.034a2.9,2.9,0,0,1,2.564-1.29,6.83,6.83,0,0,1,.73.034v1.245c-.271-.023-.56-.057-.832-.057-1.324,0-2.377.713-2.377,2v2.784h-1.936Z" transform="translate(-154.715 -94.142)" fill="#111"/>
      <path id="Path_50" data-name="Path 50" d="M203.421,99.631c0,.917.747,1.731,2.36,1.731a2.159,2.159,0,0,0,2.139-.973h1.834c-.425,1.279-2.055,1.992-3.973,1.992-2.751,0-4.3-1.279-4.3-3.078,0-1.664,1.63-3.09,4.245-3.09,2.768,0,4.466,1.664,4.143,3.418Zm4.516-.849c-.067-.815-.9-1.55-2.207-1.55-1.341,0-2.258.679-2.309,1.55Z" transform="translate(-161.352 -94.142)" fill="#111"/>
      <path id="Path_51" data-name="Path 51" d="M230.488,99.627h-1.834v-.792h-.034a3.473,3.473,0,0,1-2.716.95c-2.767,0-4.109-1.369-4.109-3.123,0-2.116,1.885-3.044,3.8-3.044a4.191,4.191,0,0,1,2.92.917h.034V91.547h1.936Zm-4.33-.86c1.732,0,2.462-1.052,2.462-2.071,0-1.29-.933-2.059-2.427-2.059-1.817,0-2.462,1.075-2.462,2.128C223.731,97.771,224.478,98.767,226.158,98.767Z" transform="translate(-172.647 -91.547)" fill="#111"/>
      <path id="Path_52" data-name="Path 52" d="M254.958,91.547h1.935v2.988h.034a3.847,3.847,0,0,1,2.615-.917c2.767,0,4.109,1.4,4.109,3.112,0,1.573-1.189,3.056-3.786,3.056-1.189,0-2.462-.192-3.039-.962h-.034v.8h-1.834Zm4.33,3.09c-1.63,0-2.462.826-2.462,2.071,0,1.177.9,2.059,2.462,2.059,1.766,0,2.428-1.041,2.428-2.059A2.167,2.167,0,0,0,259.288,94.637Z" transform="translate(-191.091 -91.547)" fill="#111"/>
      <path id="Path_53" data-name="Path 53" d="M274.694,96.57h2.123l2.292,4.368h.034l2.224-4.368h2.021l-3.413,6.168c-.628,1.052-1.087,2-3.107,2a13.059,13.059,0,0,1-1.342-.068v-1.086a8.4,8.4,0,0,0,.917.079,1.215,1.215,0,0,0,1.358-.814l.221-.453Z" transform="translate(-202.067 -94.341)" fill="#111"/>
      <path id="Path_54" data-name="Path 54" d="M303.5,96.57H305.6l2.224,4.493h.034L310,96.57h2l-3.141,5.851h-2.174Z" transform="translate(-218.086 -94.341)" fill="#111"/>
      <path id="Path_55" data-name="Path 55" d="M324.457,91.547h1.935v1.222h-1.935Zm0,2.229h1.935v5.851h-1.935Z" transform="translate(-229.743 -91.547)" fill="#111"/>
      <path id="Path_56" data-name="Path 56" d="M333.468,100.343c.1.747.951,1.019,1.987,1.019.731,0,2-.1,1.952-.77s-1.46-.758-2.869-.973c-1.427-.2-2.819-.543-2.819-1.731,0-1.279,2.071-1.675,3.668-1.675,1.8,0,3.429.5,3.667,1.8h-2.02c-.17-.611-.934-.781-1.783-.781-.561,0-1.6.091-1.6.6,0,.634,1.426.724,2.853.939,1.409.215,2.836.554,2.836,1.709,0,1.392-2.106,1.9-3.922,1.9-2.207,0-3.854-.656-3.888-2.037Z" transform="translate(-233.678 -94.142)" fill="#111"/>
      <path id="Path_57" data-name="Path 57" d="M351.614,91.547h1.936v1.222h-1.936Zm0,2.229h1.936v5.851h-1.936Z" transform="translate(-244.847 -91.547)" fill="#111"/>
      <path id="Path_58" data-name="Path 58" d="M358.843,99.291c0-1.788,1.613-3.078,4.431-3.078s4.431,1.29,4.431,3.078-1.613,3.09-4.431,3.09S358.843,101.09,358.843,99.291Zm6.927,0c0-1.007-.764-2.059-2.5-2.059s-2.5,1.052-2.5,2.059.764,2.071,2.5,2.071S365.77,100.31,365.77,99.291Z" transform="translate(-248.867 -94.142)" fill="#111"/>
      <path id="Path_59" data-name="Path 59" d="M381.486,96.371h1.834v.86l.034.022a3.661,3.661,0,0,1,2.734-1.041c1.9,0,3.107.679,3.107,1.992v4.018h-1.935V98.545c-.034-.917-.577-1.313-1.715-1.313-1.29,0-2.122.679-2.122,1.539v3.452h-1.936Z" transform="translate(-261.46 -94.142)" fill="#111"/>
      <path id="Path_60" data-name="Path 60" d="M403.349,100.343c.1.747.951,1.019,1.987,1.019.73,0,2-.1,1.952-.77s-1.46-.758-2.869-.973c-1.426-.2-2.818-.543-2.818-1.731,0-1.279,2.071-1.675,3.668-1.675,1.8,0,3.429.5,3.667,1.8h-2.02c-.17-.611-.934-.781-1.783-.781-.561,0-1.6.091-1.6.6,0,.634,1.426.724,2.853.939,1.409.215,2.836.554,2.836,1.709,0,1.392-2.106,1.9-3.922,1.9-2.207,0-3.854-.656-3.889-2.037Z" transform="translate(-272.542 -94.142)" fill="#111"/>
      <path id="Path_61" data-name="Path 61" d="M421.725,106.309h2.36v1.528h-2.36Z" transform="translate(-283.839 -99.757)" fill="#111"/>
      <path id="Path_62" data-name="Path 62" d="M441.348,91.547H446.7c3.464,0,4.126,1.494,4.126,2.5s-.662,2.49-4.126,2.478H443.47v3.1h-2.122Zm2.122,3.825h3.107c.951,0,2.122-.317,2.122-1.336,0-1.063-.968-1.336-2.088-1.336H443.47Z" transform="translate(-294.752 -91.547)" fill="#111"/>
      <path id="Path_63" data-name="Path 63" d="M465.292,96.371h1.817V97.5h.034a2.9,2.9,0,0,1,2.564-1.29,6.837,6.837,0,0,1,.73.034v1.245c-.272-.023-.56-.057-.832-.057-1.324,0-2.377.713-2.377,2v2.784h-1.936Z" transform="translate(-308.069 -94.142)" fill="#111"/>
      <path id="Path_64" data-name="Path 64" d="M477.646,99.291c0-1.788,1.613-3.078,4.432-3.078s4.431,1.29,4.431,3.078-1.613,3.09-4.431,3.09S477.646,101.09,477.646,99.291Zm6.928,0c0-1.007-.764-2.059-2.5-2.059s-2.5,1.052-2.5,2.059.764,2.071,2.5,2.071S484.574,100.31,484.574,99.291Z" transform="translate(-314.94 -94.142)" fill="#111"/>
      <path id="Path_65" data-name="Path 65" d="M497.957,96.57h2.105l2.224,4.493h.034l2.139-4.493h2l-3.141,5.851h-2.173Z" transform="translate(-326.236 -94.341)" fill="#111"/>
      <path id="Path_66" data-name="Path 66" d="M519.4,99.631c0,.917.747,1.731,2.36,1.731a2.159,2.159,0,0,0,2.139-.973h1.834c-.425,1.279-2.055,1.992-3.973,1.992-2.751,0-4.3-1.279-4.3-3.078,0-1.664,1.63-3.09,4.245-3.09,2.768,0,4.466,1.664,4.143,3.418Zm4.516-.849c-.067-.815-.9-1.55-2.207-1.55-1.341,0-2.258.679-2.309,1.55Z" transform="translate(-337.085 -94.142)" fill="#111"/>
      <path id="Path_67" data-name="Path 67" d="M538.73,96.371h1.834v.86l.034.022a3.661,3.661,0,0,1,2.734-1.041c1.9,0,3.107.679,3.107,1.992v4.018H544.5V98.545c-.034-.917-.578-1.313-1.715-1.313-1.29,0-2.122.679-2.122,1.539v3.452H538.73Z" transform="translate(-348.912 -94.142)" fill="#111"/>
      <path id="Path_68" data-name="Path 68" d="M569.521,91.547h1.936v2.988h.034a3.846,3.846,0,0,1,2.615-.917c2.767,0,4.109,1.4,4.109,3.112,0,1.573-1.188,3.056-3.786,3.056-1.189,0-2.462-.192-3.039-.962h-.034v.8h-1.834Zm4.33,3.09c-1.63,0-2.462.826-2.462,2.071,0,1.177.9,2.059,2.462,2.059,1.766,0,2.428-1.041,2.428-2.059A2.167,2.167,0,0,0,573.851,94.637Z" transform="translate(-366.036 -91.547)" fill="#111"/>
      <path id="Path_69" data-name="Path 69" d="M589.258,96.57h2.122l2.292,4.368h.034l2.224-4.368h2.021l-3.413,6.168c-.628,1.052-1.087,2-3.107,2a13.05,13.05,0,0,1-1.341-.068v-1.086a8.4,8.4,0,0,0,.917.079,1.215,1.215,0,0,0,1.359-.814l.221-.453Z" transform="translate(-377.013 -94.341)" fill="#111"/>
      <path id="Path_70" data-name="Path 70" d="M620.876,100.343c.1.747.951,1.019,1.986,1.019.731,0,2-.1,1.953-.77s-1.46-.758-2.87-.973c-1.426-.2-2.819-.543-2.819-1.731,0-1.279,2.071-1.675,3.668-1.675,1.8,0,3.43.5,3.668,1.8h-2.021c-.17-.611-.934-.781-1.783-.781-.56,0-1.6.091-1.6.6,0,.634,1.426.724,2.852.939,1.409.215,2.836.554,2.836,1.709,0,1.392-2.106,1.9-3.922,1.9-2.207,0-3.854-.656-3.888-2.037Z" transform="translate(-393.521 -94.142)" fill="#111"/>
      <path id="Path_71" data-name="Path 71" d="M646.614,102.421h-1.9v-.815h-.034a3.412,3.412,0,0,1-2.5.973c-2.292,0-3.277-.77-3.277-2.3V96.57h1.936v3.587c0,1.03.628,1.4,1.681,1.4,1.612,0,2.156-.69,2.156-1.6v-3.4h1.935Z" transform="translate(-404.625 -94.341)" fill="#111"/>
      <path id="Path_72" data-name="Path 72" d="M665.3,98.329c-.153-.713-.934-1.1-2-1.1-1,0-2.411.351-2.411,2.128,0,.973.645,2,2.326,2a1.908,1.908,0,0,0,2.088-1.336h1.936c-.357,1.517-1.766,2.354-4.024,2.354-2.751,0-4.262-1.3-4.262-3.021,0-1.766,1.443-3.146,4.33-3.146,2.037,0,3.769.679,3.956,2.116Z" transform="translate(-415.772 -94.142)" fill="#111"/>
      <path id="Path_73" data-name="Path 73" d="M685.609,98.329c-.152-.713-.933-1.1-2-1.1-1,0-2.411.351-2.411,2.128,0,.973.645,2,2.326,2a1.908,1.908,0,0,0,2.088-1.336h1.936c-.357,1.517-1.766,2.354-4.024,2.354-2.751,0-4.261-1.3-4.261-3.021,0-1.766,1.443-3.146,4.33-3.146,2.037,0,3.769.679,3.956,2.116Z" transform="translate(-427.067 -94.142)" fill="#111"/>
      <path id="Path_74" data-name="Path 74" d="M701.505,99.631c0,.917.747,1.731,2.359,1.731a2.158,2.158,0,0,0,2.139-.973h1.834c-.425,1.279-2.055,1.992-3.973,1.992-2.75,0-4.3-1.279-4.3-3.078,0-1.664,1.63-3.09,4.245-3.09,2.767,0,4.465,1.664,4.143,3.418Zm4.516-.849c-.067-.815-.9-1.55-2.207-1.55-1.342,0-2.258.679-2.309,1.55Z" transform="translate(-438.363 -94.142)" fill="#111"/>
      <path id="Path_75" data-name="Path 75" d="M721.7,100.343c.1.747.951,1.019,1.986,1.019.731,0,2-.1,1.953-.77s-1.46-.758-2.87-.973c-1.427-.2-2.819-.543-2.819-1.731,0-1.279,2.071-1.675,3.668-1.675,1.8,0,3.43.5,3.668,1.8h-2.021c-.17-.611-.933-.781-1.782-.781-.561,0-1.6.091-1.6.6,0,.634,1.426.724,2.853.939,1.409.215,2.835.554,2.835,1.709,0,1.392-2.106,1.9-3.922,1.9-2.207,0-3.854-.656-3.888-2.037Z" transform="translate(-449.595 -94.142)" fill="#111"/>
      <path id="Path_76" data-name="Path 76" d="M740.6,100.343c.1.747.951,1.019,1.987,1.019.731,0,2-.1,1.953-.77s-1.46-.758-2.869-.973c-1.427-.2-2.819-.543-2.819-1.731,0-1.279,2.071-1.675,3.668-1.675,1.8,0,3.429.5,3.667,1.8h-2.02c-.17-.611-.934-.781-1.783-.781-.561,0-1.6.091-1.6.6,0,.634,1.426.724,2.853.939,1.409.215,2.836.554,2.836,1.709,0,1.392-2.106,1.9-3.922,1.9-2.207,0-3.854-.656-3.888-2.037Z" transform="translate(-460.104 -94.142)" fill="#111"/>
      <path id="Path_77" data-name="Path 77" d="M758.972,106.309h2.36v1.528h-2.36Z" transform="translate(-471.4 -99.757)" fill="#111"/>
    </g>
  </g>
</svg>
