<svg xmlns="http://www.w3.org/2000/svg" width="26" height="26" viewBox="0 0 26 26">
  <g id="Search" transform="translate(-0.001)">
    <g id="Group_4" data-name="Group 4" transform="translate(0.001)">
      <path id="Path_13" data-name="Path 13" d="M305.648,302.208l-5.965-5.965a11.481,11.481,0,0,1-3.447,3.447l5.965,5.965a2.437,2.437,0,0,0,3.447-3.447Z" transform="translate(-280.362 -280.369)" fill="#393939"/>
      <path id="Path_14" data-name="Path 14" d="M19.5,9.75a9.75,9.75,0,1,0-9.75,9.75A9.75,9.75,0,0,0,19.5,9.75Zm-9.75,7.312A7.312,7.312,0,1,1,17.063,9.75,7.32,7.32,0,0,1,9.751,17.062Z" transform="translate(-0.001)" fill="#393939"/>
      <path id="Path_15" data-name="Path 15" d="M75.817,81.5h1.625A4.067,4.067,0,0,1,81.5,77.441V75.816A5.694,5.694,0,0,0,75.817,81.5Z" transform="translate(-71.754 -71.753)" fill="#393939"/>
    </g>
  </g>
</svg>
